module golang

go 1.16

require (
	github.com/HdrHistogram/hdrhistogram-go v1.1.2 // indirect
	github.com/bits-and-blooms/bitset v1.2.2
	github.com/gin-gonic/gin v1.7.7
	github.com/go-sql-driver/mysql v1.6.0
	github.com/golang/mock v1.6.0
	github.com/kr/pretty v0.3.0 // indirect
	github.com/lib/pq v1.10.4
	github.com/opentracing/opentracing-go v1.2.0 // indirect
	github.com/penglongli/gin-metrics v0.1.10
	github.com/prometheus/client_golang v1.12.0
	github.com/rogpeppe/go-internal v1.8.0 // indirect
	github.com/sirupsen/logrus v1.6.0
	github.com/spf13/viper v1.10.1
	github.com/stretchr/testify v1.7.0
	github.com/uber/jaeger-client-go v2.30.0+incompatible
	github.com/uber/jaeger-lib v2.4.1+incompatible
	go.elastic.co/apm/module/apmgin/v2 v2.0.0 // indirect
	go.elastic.co/apm/module/apmsql v1.15.0 // indirect
	go.elastic.co/apm/module/apmsql/v2 v2.0.0 // indirect
	go.elastic.co/apm/v2 v2.0.0 // indirect
	golang.org/x/crypto v0.0.0-20220321153916-2c7772ba3064
	golang.org/x/sys v0.0.0-20220319134239-a9b59b0215f8 // indirect
	gopkg.in/check.v1 v1.0.0-20201130134442-10cb98267c6c // indirect
)
